{
  "name": "Vendor",
  "plural": "Vendors",
  "base": "User",
  "idInjection": true,
  "options": {
    "validateUpsert": true
  },
  "properties": {
    "name": {
      "type": "string",
      "required": true
    }
  },
  "validations": [],
  "relations": {
    "user": {
      "type": "belongsTo",
      "model": "User",
      "foreignKey": "user"
    },
    "city": {
      "type": "belongsTo",
      "model": "City",
      "foreignKey": "city"
    },
    "contact": {
      "type": "hasMany",
      "model": "Contact",
      "foreignKey": "contact"
    },
    "review": {
      "type": "hasMany",
      "model": "Review",
      "foreignKey": "review",
      "through": "Vendor"
    }
  },
  "acls": [],
  "methods": {}
}
